(kicad_symbol_lib
	(version 20231120)
	(generator "kicad_symbol_editor")
	(generator_version "8.0")
	(symbol "DSP96002"
		(pin_names
			(offset 1.016)
		)
		(exclude_from_sim no)
		(in_bom yes)
		(on_board yes)
		(property "Reference" "U"
			(at -41.91 127 0)
			(effects
				(font
					(size 1.27 1.27)
				)
				(justify left)
			)
		)
		(property "Value" "DSP96002"
			(at 31.75 127 0)
			(effects
				(font
					(size 1.27 1.27)
				)
				(justify left)
			)
		)
		(property "Footprint" ""
			(at 0 0 0)
			(effects
				(font
					(size 1.27 1.27)
				)
				(hide yes)
			)
		)
		(property "Datasheet" "http://cache.freescale.com/files/dsp/doc/inactive/DSP96002.pdf"
			(at 0 0 0)
			(effects
				(font
					(size 1.27 1.27)
				)
				(hide yes)
			)
		)
		(property "Description" "32-bit General Purpose Floating-point DSP, Dual Port, PGA-223"
			(at 0 0 0)
			(effects
				(font
					(size 1.27 1.27)
				)
				(hide yes)
			)
		)
		(property "ki_keywords" "DSP 32bit Dual Port Processor"
			(at 0 0 0)
			(effects
				(font
					(size 1.27 1.27)
				)
				(hide yes)
			)
		)
		(property "ki_fp_filters" "PGA-223*"
			(at 0 0 0)
			(effects
				(font
					(size 1.27 1.27)
				)
				(hide yes)
			)
		)
		(symbol "DSP96002_0_1"
			(rectangle
				(start -41.91 -125.73)
				(end 41.91 125.73)
				(stroke
					(width 0.254)
					(type default)
				)
				(fill
					(type background)
				)
			)
		)
		(symbol "DSP96002_1_1"
			(pin tri_state line
				(at 45.72 -20.32 180)
				(length 3.81)
				(name "B.A23"
					(effects
						(font
							(size 1.27 1.27)
						)
					)
				)
				(number "A1"
					(effects
						(font
							(size 1.27 1.27)
						)
					)
				)
			)
			(pin tri_state inverted
				(at -45.72 -99.06 0)
				(length 3.81)
				(name "A.S0"
					(effects
						(font
							(size 1.27 1.27)
						)
					)
				)
				(number "A10"
					(effects
						(font
							(size 1.27 1.27)
						)
					)
				)
			)
			(pin tri_state inverted
				(at -45.72 -60.96 0)
				(length 3.81)
				(name "A.T_STROBE"
					(effects
						(font
							(size 1.27 1.27)
						)
					)
				)
				(number "A11"
					(effects
						(font
							(size 1.27 1.27)
						)
					)
				)
			)
			(pin input inverted
				(at -45.72 -68.58 0)
				(length 3.81)
				(name "A.AENB"
					(effects
						(font
							(size 1.27 1.27)
						)
					)
				)
				(number "A12"
					(effects
						(font
							(size 1.27 1.27)
						)
					)
				)
			)
			(pin tri_state line
				(at -45.72 33.02 0)
				(length 3.81)
				(name "A.A2"
					(effects
						(font
							(size 1.27 1.27)
						)
					)
				)
				(number "A13"
					(effects
						(font
							(size 1.27 1.27)
						)
					)
				)
			)
			(pin tri_state line
				(at -45.72 27.94 0)
				(length 3.81)
				(name "A.A4"
					(effects
						(font
							(size 1.27 1.27)
						)
					)
				)
				(number "A14"
					(effects
						(font
							(size 1.27 1.27)
						)
					)
				)
			)
			(pin tri_state line
				(at -45.72 20.32 0)
				(length 3.81)
				(name "A.A7"
					(effects
						(font
							(size 1.27 1.27)
						)
					)
				)
				(number "A15"
					(effects
						(font
							(size 1.27 1.27)
						)
					)
				)
			)
			(pin tri_state line
				(at -45.72 12.7 0)
				(length 3.81)
				(name "A.A10"
					(effects
						(font
							(size 1.27 1.27)
						)
					)
				)
				(number "A16"
					(effects
						(font
							(size 1.27 1.27)
						)
					)
				)
			)
			(pin tri_state line
				(at -45.72 5.08 0)
				(length 3.81)
				(name "A.A13"
					(effects
						(font
							(size 1.27 1.27)
						)
					)
				)
				(number "A17"
					(effects
						(font
							(size 1.27 1.27)
						)
					)
				)
			)
			(pin tri_state line
				(at -45.72 -2.54 0)
				(length 3.81)
				(name "A.A16"
					(effects
						(font
							(size 1.27 1.27)
						)
					)
				)
				(number "A18"
					(effects
						(font
							(size 1.27 1.27)
						)
					)
				)
			)
			(pin tri_state line
				(at 45.72 -30.48 180)
				(length 3.81)
				(name "B.A27"
					(effects
						(font
							(size 1.27 1.27)
						)
					)
				)
				(number "A2"
					(effects
						(font
							(size 1.27 1.27)
						)
					)
				)
			)
			(pin tri_state line
				(at 45.72 -35.56 180)
				(length 3.81)
				(name "B.A29"
					(effects
						(font
							(size 1.27 1.27)
						)
					)
				)
				(number "A3"
					(effects
						(font
							(size 1.27 1.27)
						)
					)
				)
			)
			(pin tri_state line
				(at 45.72 -40.64 180)
				(length 3.81)
				(name "B.A31"
					(effects
						(font
							(size 1.27 1.27)
						)
					)
				)
				(number "A4"
					(effects
						(font
							(size 1.27 1.27)
						)
					)
				)
			)
			(pin input line
				(at -45.72 -106.68 0)
				(length 3.81)
				(name "MODA/IRQA"
					(effects
						(font
							(size 1.27 1.27)
						)
					)
				)
				(number "A5"
					(effects
						(font
							(size 1.27 1.27)
						)
					)
				)
			)
			(pin input inverted
				(at -45.72 -93.98 0)
				(length 3.81)
				(name "A.BB"
					(effects
						(font
							(size 1.27 1.27)
						)
					)
				)
				(number "A6"
					(effects
						(font
							(size 1.27 1.27)
						)
					)
				)
			)
			(pin output inverted
				(at -45.72 -86.36 0)
				(length 3.81)
				(name "A.BR"
					(effects
						(font
							(size 1.27 1.27)
						)
					)
				)
				(number "A7"
					(effects
						(font
							(size 1.27 1.27)
						)
					)
				)
			)
			(pin tri_state line
				(at -45.72 -45.72 0)
				(length 3.81)
				(name "A.R/W"
					(effects
						(font
							(size 1.27 1.27)
						)
					)
				)
				(number "A9"
					(effects
						(font
							(size 1.27 1.27)
						)
					)
				)
			)
			(pin tri_state line
				(at 45.72 -12.7 180)
				(length 3.81)
				(name "B.A20"
					(effects
						(font
							(size 1.27 1.27)
						)
					)
				)
				(number "B1"
					(effects
						(font
							(size 1.27 1.27)
						)
					)
				)
			)
			(pin output inverted
				(at -45.72 -50.8 0)
				(length 3.81)
				(name "A.BUS_STR"
					(effects
						(font
							(size 1.27 1.27)
						)
					)
				)
				(number "B10"
					(effects
						(font
							(size 1.27 1.27)
						)
					)
				)
			)
			(pin tri_state line
				(at -45.72 38.1 0)
				(length 3.81)
				(name "A.A0"
					(effects
						(font
							(size 1.27 1.27)
						)
					)
				)
				(number "B11"
					(effects
						(font
							(size 1.27 1.27)
						)
					)
				)
			)
			(pin tri_state line
				(at -45.72 30.48 0)
				(length 3.81)
				(name "A.A3"
					(effects
						(font
							(size 1.27 1.27)
						)
					)
				)
				(number "B12"
					(effects
						(font
							(size 1.27 1.27)
						)
					)
				)
			)
			(pin tri_state line
				(at -45.72 22.86 0)
				(length 3.81)
				(name "A.A6"
					(effects
						(font
							(size 1.27 1.27)
						)
					)
				)
				(number "B13"
					(effects
						(font
							(size 1.27 1.27)
						)
					)
				)
			)
			(pin tri_state line
				(at -45.72 15.24 0)
				(length 3.81)
				(name "A.A9"
					(effects
						(font
							(size 1.27 1.27)
						)
					)
				)
				(number "B14"
					(effects
						(font
							(size 1.27 1.27)
						)
					)
				)
			)
			(pin tri_state line
				(at -45.72 10.16 0)
				(length 3.81)
				(name "A.A11"
					(effects
						(font
							(size 1.27 1.27)
						)
					)
				)
				(number "B15"
					(effects
						(font
							(size 1.27 1.27)
						)
					)
				)
			)
			(pin tri_state line
				(at -45.72 2.54 0)
				(length 3.81)
				(name "A.A14"
					(effects
						(font
							(size 1.27 1.27)
						)
					)
				)
				(number "B16"
					(effects
						(font
							(size 1.27 1.27)
						)
					)
				)
			)
			(pin tri_state line
				(at -45.72 -7.62 0)
				(length 3.81)
				(name "A.A18"
					(effects
						(font
							(size 1.27 1.27)
						)
					)
				)
				(number "B17"
					(effects
						(font
							(size 1.27 1.27)
						)
					)
				)
			)
			(pin tri_state line
				(at -45.72 -12.7 0)
				(length 3.81)
				(name "A.A20"
					(effects
						(font
							(size 1.27 1.27)
						)
					)
				)
				(number "B18"
					(effects
						(font
							(size 1.27 1.27)
						)
					)
				)
			)
			(pin tri_state line
				(at 45.72 -25.4 180)
				(length 3.81)
				(name "B.A25"
					(effects
						(font
							(size 1.27 1.27)
						)
					)
				)
				(number "B2"
					(effects
						(font
							(size 1.27 1.27)
						)
					)
				)
			)
			(pin tri_state line
				(at 45.72 -33.02 180)
				(length 3.81)
				(name "B.A28"
					(effects
						(font
							(size 1.27 1.27)
						)
					)
				)
				(number "B3"
					(effects
						(font
							(size 1.27 1.27)
						)
					)
				)
			)
			(pin tri_state line
				(at 45.72 -38.1 180)
				(length 3.81)
				(name "B.A30"
					(effects
						(font
							(size 1.27 1.27)
						)
					)
				)
				(number "B4"
					(effects
						(font
							(size 1.27 1.27)
						)
					)
				)
			)
			(pin input line
				(at -45.72 -109.22 0)
				(length 3.81)
				(name "MODB/IRQB"
					(effects
						(font
							(size 1.27 1.27)
						)
					)
				)
				(number "B5"
					(effects
						(font
							(size 1.27 1.27)
						)
					)
				)
			)
			(pin input inverted
				(at -45.72 -88.9 0)
				(length 3.81)
				(name "A.BG"
					(effects
						(font
							(size 1.27 1.27)
						)
					)
				)
				(number "B6"
					(effects
						(font
							(size 1.27 1.27)
						)
					)
				)
			)
			(pin open_collector inverted
				(at -45.72 -91.44 0)
				(length 3.81)
				(name "A.BA"
					(effects
						(font
							(size 1.27 1.27)
						)
					)
				)
				(number "B7"
					(effects
						(font
							(size 1.27 1.27)
						)
					)
				)
			)
			(pin output inverted
				(at 45.72 -58.42 180)
				(length 3.81)
				(name "B.T_TYPE"
					(effects
						(font
							(size 1.27 1.27)
						)
					)
				)
				(number "B8"
					(effects
						(font
							(size 1.27 1.27)
						)
					)
				)
			)
			(pin tri_state inverted
				(at -45.72 -101.6 0)
				(length 3.81)
				(name "A.S1"
					(effects
						(font
							(size 1.27 1.27)
						)
					)
				)
				(number "B9"
					(effects
						(font
							(size 1.27 1.27)
						)
					)
				)
			)
			(pin tri_state line
				(at 45.72 -5.08 180)
				(length 3.81)
				(name "B.A17"
					(effects
						(font
							(size 1.27 1.27)
						)
					)
				)
				(number "C1"
					(effects
						(font
							(size 1.27 1.27)
						)
					)
				)
			)
			(pin tri_state line
				(at -45.72 35.56 0)
				(length 3.81)
				(name "A.A1"
					(effects
						(font
							(size 1.27 1.27)
						)
					)
				)
				(number "C10"
					(effects
						(font
							(size 1.27 1.27)
						)
					)
				)
			)
			(pin tri_state line
				(at -45.72 25.4 0)
				(length 3.81)
				(name "A.A5"
					(effects
						(font
							(size 1.27 1.27)
						)
					)
				)
				(number "C11"
					(effects
						(font
							(size 1.27 1.27)
						)
					)
				)
			)
			(pin tri_state line
				(at -45.72 17.78 0)
				(length 3.81)
				(name "A.A8"
					(effects
						(font
							(size 1.27 1.27)
						)
					)
				)
				(number "C12"
					(effects
						(font
							(size 1.27 1.27)
						)
					)
				)
			)
			(pin tri_state line
				(at -45.72 7.62 0)
				(length 3.81)
				(name "A.A12"
					(effects
						(font
							(size 1.27 1.27)
						)
					)
				)
				(number "C13"
					(effects
						(font
							(size 1.27 1.27)
						)
					)
				)
			)
			(pin tri_state line
				(at -45.72 0 0)
				(length 3.81)
				(name "A.A15"
					(effects
						(font
							(size 1.27 1.27)
						)
					)
				)
				(number "C14"
					(effects
						(font
							(size 1.27 1.27)
						)
					)
				)
			)
			(pin tri_state line
				(at -45.72 -5.08 0)
				(length 3.81)
				(name "A.A17"
					(effects
						(font
							(size 1.27 1.27)
						)
					)
				)
				(number "C15"
					(effects
						(font
							(size 1.27 1.27)
						)
					)
				)
			)
			(pin tri_state line
				(at -45.72 -10.16 0)
				(length 3.81)
				(name "A.A19"
					(effects
						(font
							(size 1.27 1.27)
						)
					)
				)
				(number "C16"
					(effects
						(font
							(size 1.27 1.27)
						)
					)
				)
			)
			(pin tri_state line
				(at -45.72 -15.24 0)
				(length 3.81)
				(name "A.A21"
					(effects
						(font
							(size 1.27 1.27)
						)
					)
				)
				(number "C17"
					(effects
						(font
							(size 1.27 1.27)
						)
					)
				)
			)
			(pin tri_state line
				(at -45.72 -20.32 0)
				(length 3.81)
				(name "A.A23"
					(effects
						(font
							(size 1.27 1.27)
						)
					)
				)
				(number "C18"
					(effects
						(font
							(size 1.27 1.27)
						)
					)
				)
			)
			(pin tri_state line
				(at 45.72 -15.24 180)
				(length 3.81)
				(name "B.A21"
					(effects
						(font
							(size 1.27 1.27)
						)
					)
				)
				(number "C2"
					(effects
						(font
							(size 1.27 1.27)
						)
					)
				)
			)
			(pin tri_state line
				(at 45.72 -27.94 180)
				(length 3.81)
				(name "B.A26"
					(effects
						(font
							(size 1.27 1.27)
						)
					)
				)
				(number "C3"
					(effects
						(font
							(size 1.27 1.27)
						)
					)
				)
			)
			(pin power_in line
				(at -35.56 -129.54 90)
				(length 3.81)
				(name "GND"
					(effects
						(font
							(size 1.27 1.27)
						)
					)
				)
				(number "C4"
					(effects
						(font
							(size 1.27 1.27)
						)
					)
				)
			)
			(pin input line
				(at -45.72 -111.76 0)
				(length 3.81)
				(name "MODC/IRQC"
					(effects
						(font
							(size 1.27 1.27)
						)
					)
				)
				(number "C5"
					(effects
						(font
							(size 1.27 1.27)
						)
					)
				)
			)
			(pin input inverted
				(at -45.72 -119.38 0)
				(length 3.81)
				(name "RESET"
					(effects
						(font
							(size 1.27 1.27)
						)
					)
				)
				(number "C6"
					(effects
						(font
							(size 1.27 1.27)
						)
					)
				)
			)
			(pin output inverted
				(at -45.72 -53.34 0)
				(length 3.81)
				(name "A.BUS_LOCK"
					(effects
						(font
							(size 1.27 1.27)
						)
					)
				)
				(number "C7"
					(effects
						(font
							(size 1.27 1.27)
						)
					)
				)
			)
			(pin output inverted
				(at -45.72 -58.42 0)
				(length 3.81)
				(name "A.T_TYPE"
					(effects
						(font
							(size 1.27 1.27)
						)
					)
				)
				(number "C8"
					(effects
						(font
							(size 1.27 1.27)
						)
					)
				)
			)
			(pin tri_state line
				(at 45.72 0 180)
				(length 3.81)
				(name "B.A15"
					(effects
						(font
							(size 1.27 1.27)
						)
					)
				)
				(number "D1"
					(effects
						(font
							(size 1.27 1.27)
						)
					)
				)
			)
			(pin power_in line
				(at 2.54 129.54 270)
				(length 3.81)
				(name "VCC"
					(effects
						(font
							(size 1.27 1.27)
						)
					)
				)
				(number "D10"
					(effects
						(font
							(size 1.27 1.27)
						)
					)
				)
			)
			(pin power_in line
				(at -25.4 -129.54 90)
				(length 3.81)
				(name "GND"
					(effects
						(font
							(size 1.27 1.27)
						)
					)
				)
				(number "D11"
					(effects
						(font
							(size 1.27 1.27)
						)
					)
				)
			)
			(pin power_in line
				(at 5.08 129.54 270)
				(length 3.81)
				(name "VCC"
					(effects
						(font
							(size 1.27 1.27)
						)
					)
				)
				(number "D12"
					(effects
						(font
							(size 1.27 1.27)
						)
					)
				)
			)
			(pin power_in line
				(at -22.86 -129.54 90)
				(length 3.81)
				(name "GND"
					(effects
						(font
							(size 1.27 1.27)
						)
					)
				)
				(number "D13"
					(effects
						(font
							(size 1.27 1.27)
						)
					)
				)
			)
			(pin power_in line
				(at -20.32 -129.54 90)
				(length 3.81)
				(name "GND"
					(effects
						(font
							(size 1.27 1.27)
						)
					)
				)
				(number "D14"
					(effects
						(font
							(size 1.27 1.27)
						)
					)
				)
			)
			(pin power_in line
				(at -17.78 -129.54 90)
				(length 3.81)
				(name "GND"
					(effects
						(font
							(size 1.27 1.27)
						)
					)
				)
				(number "D15"
					(effects
						(font
							(size 1.27 1.27)
						)
					)
				)
			)
			(pin tri_state line
				(at -45.72 -17.78 0)
				(length 3.81)
				(name "A.A22"
					(effects
						(font
							(size 1.27 1.27)
						)
					)
				)
				(number "D16"
					(effects
						(font
							(size 1.27 1.27)
						)
					)
				)
			)
			(pin tri_state line
				(at -45.72 -25.4 0)
				(length 3.81)
				(name "A.A25"
					(effects
						(font
							(size 1.27 1.27)
						)
					)
				)
				(number "D17"
					(effects
						(font
							(size 1.27 1.27)
						)
					)
				)
			)
			(pin tri_state line
				(at -45.72 -27.94 0)
				(length 3.81)
				(name "A.A26"
					(effects
						(font
							(size 1.27 1.27)
						)
					)
				)
				(number "D18"
					(effects
						(font
							(size 1.27 1.27)
						)
					)
				)
			)
			(pin tri_state line
				(at 45.72 -7.62 180)
				(length 3.81)
				(name "B.A18"
					(effects
						(font
							(size 1.27 1.27)
						)
					)
				)
				(number "D2"
					(effects
						(font
							(size 1.27 1.27)
						)
					)
				)
			)
			(pin tri_state line
				(at 45.72 -22.86 180)
				(length 3.81)
				(name "B.A24"
					(effects
						(font
							(size 1.27 1.27)
						)
					)
				)
				(number "D3"
					(effects
						(font
							(size 1.27 1.27)
						)
					)
				)
			)
			(pin power_in line
				(at -33.02 -129.54 90)
				(length 3.81)
				(name "GND"
					(effects
						(font
							(size 1.27 1.27)
						)
					)
				)
				(number "D5"
					(effects
						(font
							(size 1.27 1.27)
						)
					)
				)
			)
			(pin power_in line
				(at -30.48 -129.54 90)
				(length 3.81)
				(name "GND"
					(effects
						(font
							(size 1.27 1.27)
						)
					)
				)
				(number "D6"
					(effects
						(font
							(size 1.27 1.27)
						)
					)
				)
			)
			(pin power_in line
				(at -27.94 -129.54 90)
				(length 3.81)
				(name "GND"
					(effects
						(font
							(size 1.27 1.27)
						)
					)
				)
				(number "D7"
					(effects
						(font
							(size 1.27 1.27)
						)
					)
				)
			)
			(pin power_in line
				(at -7.62 129.54 270)
				(length 3.81)
				(name "VCC"
					(effects
						(font
							(size 1.27 1.27)
						)
					)
				)
				(number "D8"
					(effects
						(font
							(size 1.27 1.27)
						)
					)
				)
			)
			(pin power_in line
				(at -5.08 129.54 270)
				(length 3.81)
				(name "VCC"
					(effects
						(font
							(size 1.27 1.27)
						)
					)
				)
				(number "D9"
					(effects
						(font
							(size 1.27 1.27)
						)
					)
				)
			)
			(pin tri_state line
				(at 45.72 5.08 180)
				(length 3.81)
				(name "B.A13"
					(effects
						(font
							(size 1.27 1.27)
						)
					)
				)
				(number "E1"
					(effects
						(font
							(size 1.27 1.27)
						)
					)
				)
			)
			(pin power_in line
				(at -12.7 -129.54 90)
				(length 3.81)
				(name "GND"
					(effects
						(font
							(size 1.27 1.27)
						)
					)
				)
				(number "E15"
					(effects
						(font
							(size 1.27 1.27)
						)
					)
				)
			)
			(pin tri_state line
				(at -45.72 -22.86 0)
				(length 3.81)
				(name "A.A24"
					(effects
						(font
							(size 1.27 1.27)
						)
					)
				)
				(number "E16"
					(effects
						(font
							(size 1.27 1.27)
						)
					)
				)
			)
			(pin tri_state line
				(at -45.72 -33.02 0)
				(length 3.81)
				(name "A.A28"
					(effects
						(font
							(size 1.27 1.27)
						)
					)
				)
				(number "E17"
					(effects
						(font
							(size 1.27 1.27)
						)
					)
				)
			)
			(pin tri_state line
				(at -45.72 -35.56 0)
				(length 3.81)
				(name "A.A29"
					(effects
						(font
							(size 1.27 1.27)
						)
					)
				)
				(number "E18"
					(effects
						(font
							(size 1.27 1.27)
						)
					)
				)
			)
			(pin tri_state line
				(at 45.72 -2.54 180)
				(length 3.81)
				(name "B.A16"
					(effects
						(font
							(size 1.27 1.27)
						)
					)
				)
				(number "E2"
					(effects
						(font
							(size 1.27 1.27)
						)
					)
				)
			)
			(pin tri_state line
				(at 45.72 -17.78 180)
				(length 3.81)
				(name "B.A22"
					(effects
						(font
							(size 1.27 1.27)
						)
					)
				)
				(number "E3"
					(effects
						(font
							(size 1.27 1.27)
						)
					)
				)
			)
			(pin power_in line
				(at -15.24 -129.54 90)
				(length 3.81)
				(name "GND"
					(effects
						(font
							(size 1.27 1.27)
						)
					)
				)
				(number "E4"
					(effects
						(font
							(size 1.27 1.27)
						)
					)
				)
			)
			(pin tri_state line
				(at 45.72 7.62 180)
				(length 3.81)
				(name "B.A12"
					(effects
						(font
							(size 1.27 1.27)
						)
					)
				)
				(number "F1"
					(effects
						(font
							(size 1.27 1.27)
						)
					)
				)
			)
			(pin power_in line
				(at -7.62 -129.54 90)
				(length 3.81)
				(name "GND"
					(effects
						(font
							(size 1.27 1.27)
						)
					)
				)
				(number "F15"
					(effects
						(font
							(size 1.27 1.27)
						)
					)
				)
			)
			(pin tri_state line
				(at -45.72 -30.48 0)
				(length 3.81)
				(name "A.A27"
					(effects
						(font
							(size 1.27 1.27)
						)
					)
				)
				(number "F16"
					(effects
						(font
							(size 1.27 1.27)
						)
					)
				)
			)
			(pin tri_state line
				(at -45.72 -38.1 0)
				(length 3.81)
				(name "A.A30"
					(effects
						(font
							(size 1.27 1.27)
						)
					)
				)
				(number "F17"
					(effects
						(font
							(size 1.27 1.27)
						)
					)
				)
			)
			(pin tri_state line
				(at -45.72 43.18 0)
				(length 3.81)
				(name "A.D31"
					(effects
						(font
							(size 1.27 1.27)
						)
					)
				)
				(number "F18"
					(effects
						(font
							(size 1.27 1.27)
						)
					)
				)
			)
			(pin tri_state line
				(at 45.72 2.54 180)
				(length 3.81)
				(name "B.A14"
					(effects
						(font
							(size 1.27 1.27)
						)
					)
				)
				(number "F2"
					(effects
						(font
							(size 1.27 1.27)
						)
					)
				)
			)
			(pin tri_state line
				(at 45.72 -10.16 180)
				(length 3.81)
				(name "B.A19"
					(effects
						(font
							(size 1.27 1.27)
						)
					)
				)
				(number "F3"
					(effects
						(font
							(size 1.27 1.27)
						)
					)
				)
			)
			(pin power_in line
				(at -10.16 -129.54 90)
				(length 3.81)
				(name "GND"
					(effects
						(font
							(size 1.27 1.27)
						)
					)
				)
				(number "F4"
					(effects
						(font
							(size 1.27 1.27)
						)
					)
				)
			)
			(pin tri_state line
				(at 45.72 15.24 180)
				(length 3.81)
				(name "B.A9"
					(effects
						(font
							(size 1.27 1.27)
						)
					)
				)
				(number "G1"
					(effects
						(font
							(size 1.27 1.27)
						)
					)
				)
			)
			(pin power_in line
				(at -5.08 -129.54 90)
				(length 3.81)
				(name "GND"
					(effects
						(font
							(size 1.27 1.27)
						)
					)
				)
				(number "G15"
					(effects
						(font
							(size 1.27 1.27)
						)
					)
				)
			)
			(pin tri_state line
				(at -45.72 -40.64 0)
				(length 3.81)
				(name "A.A31"
					(effects
						(font
							(size 1.27 1.27)
						)
					)
				)
				(number "G16"
					(effects
						(font
							(size 1.27 1.27)
						)
					)
				)
			)
			(pin tri_state line
				(at -45.72 45.72 0)
				(length 3.81)
				(name "A.D30"
					(effects
						(font
							(size 1.27 1.27)
						)
					)
				)
				(number "G17"
					(effects
						(font
							(size 1.27 1.27)
						)
					)
				)
			)
			(pin tri_state line
				(at -45.72 48.26 0)
				(length 3.81)
				(name "A.D29"
					(effects
						(font
							(size 1.27 1.27)
						)
					)
				)
				(number "G18"
					(effects
						(font
							(size 1.27 1.27)
						)
					)
				)
			)
			(pin tri_state line
				(at 45.72 12.7 180)
				(length 3.81)
				(name "B.A10"
					(effects
						(font
							(size 1.27 1.27)
						)
					)
				)
				(number "G2"
					(effects
						(font
							(size 1.27 1.27)
						)
					)
				)
			)
			(pin power_in line
				(at -20.32 129.54 270)
				(length 3.81)
				(name "VCC"
					(effects
						(font
							(size 1.27 1.27)
						)
					)
				)
				(number "G3"
					(effects
						(font
							(size 1.27 1.27)
						)
					)
				)
			)
			(pin power_in line
				(at -17.78 129.54 270)
				(length 3.81)
				(name "VCC"
					(effects
						(font
							(size 1.27 1.27)
						)
					)
				)
				(number "G4"
					(effects
						(font
							(size 1.27 1.27)
						)
					)
				)
			)
			(pin tri_state line
				(at 45.72 17.78 180)
				(length 3.81)
				(name "B.A8"
					(effects
						(font
							(size 1.27 1.27)
						)
					)
				)
				(number "H1"
					(effects
						(font
							(size 1.27 1.27)
						)
					)
				)
			)
			(pin power_in line
				(at 7.62 129.54 270)
				(length 3.81)
				(name "VCC"
					(effects
						(font
							(size 1.27 1.27)
						)
					)
				)
				(number "H15"
					(effects
						(font
							(size 1.27 1.27)
						)
					)
				)
			)
			(pin tri_state line
				(at -45.72 50.8 0)
				(length 3.81)
				(name "A.D28"
					(effects
						(font
							(size 1.27 1.27)
						)
					)
				)
				(number "H16"
					(effects
						(font
							(size 1.27 1.27)
						)
					)
				)
			)
			(pin tri_state line
				(at -45.72 53.34 0)
				(length 3.81)
				(name "A.D27"
					(effects
						(font
							(size 1.27 1.27)
						)
					)
				)
				(number "H17"
					(effects
						(font
							(size 1.27 1.27)
						)
					)
				)
			)
			(pin tri_state line
				(at -45.72 55.88 0)
				(length 3.81)
				(name "A.D26"
					(effects
						(font
							(size 1.27 1.27)
						)
					)
				)
				(number "H18"
					(effects
						(font
							(size 1.27 1.27)
						)
					)
				)
			)
			(pin input clock
				(at -45.72 -116.84 0)
				(length 3.81)
				(name "CLK"
					(effects
						(font
							(size 1.27 1.27)
						)
					)
				)
				(number "H2"
					(effects
						(font
							(size 1.27 1.27)
						)
					)
				)
			)
			(pin tri_state line
				(at 45.72 10.16 180)
				(length 3.81)
				(name "B.A11"
					(effects
						(font
							(size 1.27 1.27)
						)
					)
				)
				(number "H3"
					(effects
						(font
							(size 1.27 1.27)
						)
					)
				)
			)
			(pin power_in line
				(at -15.24 129.54 270)
				(length 3.81)
				(name "VCC"
					(effects
						(font
							(size 1.27 1.27)
						)
					)
				)
				(number "H4"
					(effects
						(font
							(size 1.27 1.27)
						)
					)
				)
			)
			(pin input inverted
				(at -45.72 -63.5 0)
				(length 3.81)
				(name "A.TACK"
					(effects
						(font
							(size 1.27 1.27)
						)
					)
				)
				(number "J1"
					(effects
						(font
							(size 1.27 1.27)
						)
					)
				)
			)
			(pin power_in line
				(at 0 -129.54 90)
				(length 3.81)
				(name "GND"
					(effects
						(font
							(size 1.27 1.27)
						)
					)
				)
				(number "J15"
					(effects
						(font
							(size 1.27 1.27)
						)
					)
				)
			)
			(pin tri_state line
				(at -45.72 60.96 0)
				(length 3.81)
				(name "A.D24"
					(effects
						(font
							(size 1.27 1.27)
						)
					)
				)
				(number "J16"
					(effects
						(font
							(size 1.27 1.27)
						)
					)
				)
			)
			(pin tri_state line
				(at -45.72 58.42 0)
				(length 3.81)
				(name "A.D25"
					(effects
						(font
							(size 1.27 1.27)
						)
					)
				)
				(number "J17"
					(effects
						(font
							(size 1.27 1.27)
						)
					)
				)
			)
			(pin tri_state line
				(at -45.72 63.5 0)
				(length 3.81)
				(name "A.D23"
					(effects
						(font
							(size 1.27 1.27)
						)
					)
				)
				(number "J18"
					(effects
						(font
							(size 1.27 1.27)
						)
					)
				)
			)
			(pin input inverted
				(at 45.72 -63.5 180)
				(length 3.81)
				(name "B.TACK"
					(effects
						(font
							(size 1.27 1.27)
						)
					)
				)
				(number "J2"
					(effects
						(font
							(size 1.27 1.27)
						)
					)
				)
			)
			(pin tri_state line
				(at 45.72 20.32 180)
				(length 3.81)
				(name "B.A7"
					(effects
						(font
							(size 1.27 1.27)
						)
					)
				)
				(number "J3"
					(effects
						(font
							(size 1.27 1.27)
						)
					)
				)
			)
			(pin power_in line
				(at -2.54 -129.54 90)
				(length 3.81)
				(name "GND"
					(effects
						(font
							(size 1.27 1.27)
						)
					)
				)
				(number "J4"
					(effects
						(font
							(size 1.27 1.27)
						)
					)
				)
			)
			(pin tri_state line
				(at 45.72 27.94 180)
				(length 3.81)
				(name "B.A4"
					(effects
						(font
							(size 1.27 1.27)
						)
					)
				)
				(number "K1"
					(effects
						(font
							(size 1.27 1.27)
						)
					)
				)
			)
			(pin power_in line
				(at 2.54 -129.54 90)
				(length 3.81)
				(name "GND"
					(effects
						(font
							(size 1.27 1.27)
						)
					)
				)
				(number "K15"
					(effects
						(font
							(size 1.27 1.27)
						)
					)
				)
			)
			(pin tri_state line
				(at -45.72 71.12 0)
				(length 3.81)
				(name "A.D20"
					(effects
						(font
							(size 1.27 1.27)
						)
					)
				)
				(number "K16"
					(effects
						(font
							(size 1.27 1.27)
						)
					)
				)
			)
			(pin tri_state line
				(at -45.72 68.58 0)
				(length 3.81)
				(name "A.D21"
					(effects
						(font
							(size 1.27 1.27)
						)
					)
				)
				(number "K17"
					(effects
						(font
							(size 1.27 1.27)
						)
					)
				)
			)
			(pin tri_state line
				(at -45.72 66.04 0)
				(length 3.81)
				(name "A.D22"
					(effects
						(font
							(size 1.27 1.27)
						)
					)
				)
				(number "K18"
					(effects
						(font
							(size 1.27 1.27)
						)
					)
				)
			)
			(pin tri_state line
				(at 45.72 25.4 180)
				(length 3.81)
				(name "B.A5"
					(effects
						(font
							(size 1.27 1.27)
						)
					)
				)
				(number "K2"
					(effects
						(font
							(size 1.27 1.27)
						)
					)
				)
			)
			(pin tri_state line
				(at 45.72 22.86 180)
				(length 3.81)
				(name "B.A6"
					(effects
						(font
							(size 1.27 1.27)
						)
					)
				)
				(number "K3"
					(effects
						(font
							(size 1.27 1.27)
						)
					)
				)
			)
			(pin power_in line
				(at -12.7 129.54 270)
				(length 3.81)
				(name "VCC"
					(effects
						(font
							(size 1.27 1.27)
						)
					)
				)
				(number "K4"
					(effects
						(font
							(size 1.27 1.27)
						)
					)
				)
			)
			(pin tri_state line
				(at 45.72 30.48 180)
				(length 3.81)
				(name "B.A3"
					(effects
						(font
							(size 1.27 1.27)
						)
					)
				)
				(number "L1"
					(effects
						(font
							(size 1.27 1.27)
						)
					)
				)
			)
			(pin power_in line
				(at 10.16 129.54 270)
				(length 3.81)
				(name "VCC"
					(effects
						(font
							(size 1.27 1.27)
						)
					)
				)
				(number "L15"
					(effects
						(font
							(size 1.27 1.27)
						)
					)
				)
			)
			(pin tri_state line
				(at -45.72 81.28 0)
				(length 3.81)
				(name "A.D16"
					(effects
						(font
							(size 1.27 1.27)
						)
					)
				)
				(number "L16"
					(effects
						(font
							(size 1.27 1.27)
						)
					)
				)
			)
			(pin tri_state line
				(at -45.72 76.2 0)
				(length 3.81)
				(name "A.D18"
					(effects
						(font
							(size 1.27 1.27)
						)
					)
				)
				(number "L17"
					(effects
						(font
							(size 1.27 1.27)
						)
					)
				)
			)
			(pin tri_state line
				(at -45.72 73.66 0)
				(length 3.81)
				(name "A.D19"
					(effects
						(font
							(size 1.27 1.27)
						)
					)
				)
				(number "L18"
					(effects
						(font
							(size 1.27 1.27)
						)
					)
				)
			)
			(pin tri_state line
				(at 45.72 35.56 180)
				(length 3.81)
				(name "B.A1"
					(effects
						(font
							(size 1.27 1.27)
						)
					)
				)
				(number "L2"
					(effects
						(font
							(size 1.27 1.27)
						)
					)
				)
			)
			(pin tri_state line
				(at 45.72 33.02 180)
				(length 3.81)
				(name "B.A2"
					(effects
						(font
							(size 1.27 1.27)
						)
					)
				)
				(number "L3"
					(effects
						(font
							(size 1.27 1.27)
						)
					)
				)
			)
			(pin power_in line
				(at -10.16 129.54 270)
				(length 3.81)
				(name "VCC"
					(effects
						(font
							(size 1.27 1.27)
						)
					)
				)
				(number "L4"
					(effects
						(font
							(size 1.27 1.27)
						)
					)
				)
			)
			(pin tri_state line
				(at 45.72 38.1 180)
				(length 3.81)
				(name "B.A0"
					(effects
						(font
							(size 1.27 1.27)
						)
					)
				)
				(number "M1"
					(effects
						(font
							(size 1.27 1.27)
						)
					)
				)
			)
			(pin power_in line
				(at 12.7 129.54 270)
				(length 3.81)
				(name "VCC"
					(effects
						(font
							(size 1.27 1.27)
						)
					)
				)
				(number "M15"
					(effects
						(font
							(size 1.27 1.27)
						)
					)
				)
			)
			(pin power_in line
				(at 15.24 129.54 270)
				(length 3.81)
				(name "VCC"
					(effects
						(font
							(size 1.27 1.27)
						)
					)
				)
				(number "M16"
					(effects
						(font
							(size 1.27 1.27)
						)
					)
				)
			)
			(pin input inverted
				(at -45.72 -71.12 0)
				(length 3.81)
				(name "A.DENB"
					(effects
						(font
							(size 1.27 1.27)
						)
					)
				)
				(number "M17"
					(effects
						(font
							(size 1.27 1.27)
						)
					)
				)
			)
			(pin tri_state line
				(at -45.72 78.74 0)
				(length 3.81)
				(name "A.D17"
					(effects
						(font
							(size 1.27 1.27)
						)
					)
				)
				(number "M18"
					(effects
						(font
							(size 1.27 1.27)
						)
					)
				)
			)
			(pin tri_state inverted
				(at 45.72 -101.6 180)
				(length 3.81)
				(name "B.S1"
					(effects
						(font
							(size 1.27 1.27)
						)
					)
				)
				(number "M2"
					(effects
						(font
							(size 1.27 1.27)
						)
					)
				)
			)
			(pin tri_state inverted
				(at 45.72 -99.06 180)
				(length 3.81)
				(name "B.S0"
					(effects
						(font
							(size 1.27 1.27)
						)
					)
				)
				(number "M3"
					(effects
						(font
							(size 1.27 1.27)
						)
					)
				)
			)
			(pin power_in line
				(at 5.08 -129.54 90)
				(length 3.81)
				(name "GND"
					(effects
						(font
							(size 1.27 1.27)
						)
					)
				)
				(number "M4"
					(effects
						(font
							(size 1.27 1.27)
						)
					)
				)
			)
			(pin input inverted
				(at 45.72 -68.58 180)
				(length 3.81)
				(name "B.AENB"
					(effects
						(font
							(size 1.27 1.27)
						)
					)
				)
				(number "N1"
					(effects
						(font
							(size 1.27 1.27)
						)
					)
				)
			)
			(pin power_in line
				(at 10.16 -129.54 90)
				(length 3.81)
				(name "GND"
					(effects
						(font
							(size 1.27 1.27)
						)
					)
				)
				(number "N15"
					(effects
						(font
							(size 1.27 1.27)
						)
					)
				)
			)
			(pin tri_state line
				(at -45.72 93.98 0)
				(length 3.81)
				(name "A.D11"
					(effects
						(font
							(size 1.27 1.27)
						)
					)
				)
				(number "N16"
					(effects
						(font
							(size 1.27 1.27)
						)
					)
				)
			)
			(pin tri_state line
				(at -45.72 86.36 0)
				(length 3.81)
				(name "A.D14"
					(effects
						(font
							(size 1.27 1.27)
						)
					)
				)
				(number "N17"
					(effects
						(font
							(size 1.27 1.27)
						)
					)
				)
			)
			(pin tri_state line
				(at -45.72 83.82 0)
				(length 3.81)
				(name "A.D15"
					(effects
						(font
							(size 1.27 1.27)
						)
					)
				)
				(number "N18"
					(effects
						(font
							(size 1.27 1.27)
						)
					)
				)
			)
			(pin power_in line
				(at 7.62 -129.54 90)
				(length 3.81)
				(name "GND"
					(effects
						(font
							(size 1.27 1.27)
						)
					)
				)
				(number "N4"
					(effects
						(font
							(size 1.27 1.27)
						)
					)
				)
			)
			(pin tri_state line
				(at 45.72 -45.72 180)
				(length 3.81)
				(name "B.R/W"
					(effects
						(font
							(size 1.27 1.27)
						)
					)
				)
				(number "P1"
					(effects
						(font
							(size 1.27 1.27)
						)
					)
				)
			)
			(pin power_in line
				(at 15.24 -129.54 90)
				(length 3.81)
				(name "GND"
					(effects
						(font
							(size 1.27 1.27)
						)
					)
				)
				(number "P15"
					(effects
						(font
							(size 1.27 1.27)
						)
					)
				)
			)
			(pin tri_state line
				(at -45.72 104.14 0)
				(length 3.81)
				(name "A.D7"
					(effects
						(font
							(size 1.27 1.27)
						)
					)
				)
				(number "P16"
					(effects
						(font
							(size 1.27 1.27)
						)
					)
				)
			)
			(pin tri_state line
				(at -45.72 91.44 0)
				(length 3.81)
				(name "A.D12"
					(effects
						(font
							(size 1.27 1.27)
						)
					)
				)
				(number "P17"
					(effects
						(font
							(size 1.27 1.27)
						)
					)
				)
			)
			(pin tri_state line
				(at -45.72 88.9 0)
				(length 3.81)
				(name "A.D13"
					(effects
						(font
							(size 1.27 1.27)
						)
					)
				)
				(number "P18"
					(effects
						(font
							(size 1.27 1.27)
						)
					)
				)
			)
			(pin tri_state inverted
				(at 45.72 -60.96 180)
				(length 3.81)
				(name "B.T_STROBE"
					(effects
						(font
							(size 1.27 1.27)
						)
					)
				)
				(number "P2"
					(effects
						(font
							(size 1.27 1.27)
						)
					)
				)
			)
			(pin output inverted
				(at 45.72 -53.34 180)
				(length 3.81)
				(name "B.BUS_LOCK"
					(effects
						(font
							(size 1.27 1.27)
						)
					)
				)
				(number "P3"
					(effects
						(font
							(size 1.27 1.27)
						)
					)
				)
			)
			(pin power_in line
				(at 12.7 -129.54 90)
				(length 3.81)
				(name "GND"
					(effects
						(font
							(size 1.27 1.27)
						)
					)
				)
				(number "P4"
					(effects
						(font
							(size 1.27 1.27)
						)
					)
				)
			)
			(pin output inverted
				(at 45.72 -50.8 180)
				(length 3.81)
				(name "B.BUS_STR"
					(effects
						(font
							(size 1.27 1.27)
						)
					)
				)
				(number "R1"
					(effects
						(font
							(size 1.27 1.27)
						)
					)
				)
			)
			(pin power_in line
				(at 17.78 129.54 270)
				(length 3.81)
				(name "VCC"
					(effects
						(font
							(size 1.27 1.27)
						)
					)
				)
				(number "R10"
					(effects
						(font
							(size 1.27 1.27)
						)
					)
				)
			)
			(pin power_in line
				(at 20.32 129.54 270)
				(length 3.81)
				(name "VCC"
					(effects
						(font
							(size 1.27 1.27)
						)
					)
				)
				(number "R11"
					(effects
						(font
							(size 1.27 1.27)
						)
					)
				)
			)
			(pin power_in line
				(at 27.94 -129.54 90)
				(length 3.81)
				(name "GND"
					(effects
						(font
							(size 1.27 1.27)
						)
					)
				)
				(number "R12"
					(effects
						(font
							(size 1.27 1.27)
						)
					)
				)
			)
			(pin power_in line
				(at 30.48 -129.54 90)
				(length 3.81)
				(name "GND"
					(effects
						(font
							(size 1.27 1.27)
						)
					)
				)
				(number "R13"
					(effects
						(font
							(size 1.27 1.27)
						)
					)
				)
			)
			(pin power_in line
				(at 33.02 -129.54 90)
				(length 3.81)
				(name "GND"
					(effects
						(font
							(size 1.27 1.27)
						)
					)
				)
				(number "R14"
					(effects
						(font
							(size 1.27 1.27)
						)
					)
				)
			)
			(pin power_in line
				(at 35.56 -129.54 90)
				(length 3.81)
				(name "GND"
					(effects
						(font
							(size 1.27 1.27)
						)
					)
				)
				(number "R15"
					(effects
						(font
							(size 1.27 1.27)
						)
					)
				)
			)
			(pin tri_state line
				(at -45.72 109.22 0)
				(length 3.81)
				(name "A.D5"
					(effects
						(font
							(size 1.27 1.27)
						)
					)
				)
				(number "R16"
					(effects
						(font
							(size 1.27 1.27)
						)
					)
				)
			)
			(pin tri_state line
				(at -45.72 99.06 0)
				(length 3.81)
				(name "A.D9"
					(effects
						(font
							(size 1.27 1.27)
						)
					)
				)
				(number "R17"
					(effects
						(font
							(size 1.27 1.27)
						)
					)
				)
			)
			(pin tri_state line
				(at -45.72 96.52 0)
				(length 3.81)
				(name "A.D10"
					(effects
						(font
							(size 1.27 1.27)
						)
					)
				)
				(number "R18"
					(effects
						(font
							(size 1.27 1.27)
						)
					)
				)
			)
			(pin output inverted
				(at 45.72 -86.36 180)
				(length 3.81)
				(name "B.BR"
					(effects
						(font
							(size 1.27 1.27)
						)
					)
				)
				(number "R2"
					(effects
						(font
							(size 1.27 1.27)
						)
					)
				)
			)
			(pin input inverted
				(at 45.72 -93.98 180)
				(length 3.81)
				(name "B.BB"
					(effects
						(font
							(size 1.27 1.27)
						)
					)
				)
				(number "R3"
					(effects
						(font
							(size 1.27 1.27)
						)
					)
				)
			)
			(pin power_in line
				(at 17.78 -129.54 90)
				(length 3.81)
				(name "GND"
					(effects
						(font
							(size 1.27 1.27)
						)
					)
				)
				(number "R4"
					(effects
						(font
							(size 1.27 1.27)
						)
					)
				)
			)
			(pin power_in line
				(at 20.32 -129.54 90)
				(length 3.81)
				(name "GND"
					(effects
						(font
							(size 1.27 1.27)
						)
					)
				)
				(number "R5"
					(effects
						(font
							(size 1.27 1.27)
						)
					)
				)
			)
			(pin power_in line
				(at 22.86 -129.54 90)
				(length 3.81)
				(name "GND"
					(effects
						(font
							(size 1.27 1.27)
						)
					)
				)
				(number "R6"
					(effects
						(font
							(size 1.27 1.27)
						)
					)
				)
			)
			(pin power_in line
				(at -2.54 129.54 270)
				(length 3.81)
				(name "VCC"
					(effects
						(font
							(size 1.27 1.27)
						)
					)
				)
				(number "R7"
					(effects
						(font
							(size 1.27 1.27)
						)
					)
				)
			)
			(pin power_in line
				(at 25.4 -129.54 90)
				(length 3.81)
				(name "GND"
					(effects
						(font
							(size 1.27 1.27)
						)
					)
				)
				(number "R8"
					(effects
						(font
							(size 1.27 1.27)
						)
					)
				)
			)
			(pin power_in line
				(at 0 129.54 270)
				(length 3.81)
				(name "VCC"
					(effects
						(font
							(size 1.27 1.27)
						)
					)
				)
				(number "R9"
					(effects
						(font
							(size 1.27 1.27)
						)
					)
				)
			)
			(pin input inverted
				(at 45.72 -88.9 180)
				(length 3.81)
				(name "B.BG"
					(effects
						(font
							(size 1.27 1.27)
						)
					)
				)
				(number "T1"
					(effects
						(font
							(size 1.27 1.27)
						)
					)
				)
			)
			(pin tri_state line
				(at 45.72 78.74 180)
				(length 3.81)
				(name "B.D17"
					(effects
						(font
							(size 1.27 1.27)
						)
					)
				)
				(number "T10"
					(effects
						(font
							(size 1.27 1.27)
						)
					)
				)
			)
			(pin tri_state line
				(at 45.72 86.36 180)
				(length 3.81)
				(name "B.D14"
					(effects
						(font
							(size 1.27 1.27)
						)
					)
				)
				(number "T11"
					(effects
						(font
							(size 1.27 1.27)
						)
					)
				)
			)
			(pin tri_state line
				(at 45.72 93.98 180)
				(length 3.81)
				(name "B.D11"
					(effects
						(font
							(size 1.27 1.27)
						)
					)
				)
				(number "T12"
					(effects
						(font
							(size 1.27 1.27)
						)
					)
				)
			)
			(pin tri_state line
				(at 45.72 104.14 180)
				(length 3.81)
				(name "B.D7"
					(effects
						(font
							(size 1.27 1.27)
						)
					)
				)
				(number "T13"
					(effects
						(font
							(size 1.27 1.27)
						)
					)
				)
			)
			(pin tri_state line
				(at 45.72 111.76 180)
				(length 3.81)
				(name "B.D4"
					(effects
						(font
							(size 1.27 1.27)
						)
					)
				)
				(number "T14"
					(effects
						(font
							(size 1.27 1.27)
						)
					)
				)
			)
			(pin tri_state line
				(at 45.72 119.38 180)
				(length 3.81)
				(name "B.D1"
					(effects
						(font
							(size 1.27 1.27)
						)
					)
				)
				(number "T15"
					(effects
						(font
							(size 1.27 1.27)
						)
					)
				)
			)
			(pin tri_state line
				(at -45.72 116.84 0)
				(length 3.81)
				(name "A.D2"
					(effects
						(font
							(size 1.27 1.27)
						)
					)
				)
				(number "T16"
					(effects
						(font
							(size 1.27 1.27)
						)
					)
				)
			)
			(pin tri_state line
				(at -45.72 106.68 0)
				(length 3.81)
				(name "A.D6"
					(effects
						(font
							(size 1.27 1.27)
						)
					)
				)
				(number "T17"
					(effects
						(font
							(size 1.27 1.27)
						)
					)
				)
			)
			(pin tri_state line
				(at -45.72 101.6 0)
				(length 3.81)
				(name "A.D8"
					(effects
						(font
							(size 1.27 1.27)
						)
					)
				)
				(number "T18"
					(effects
						(font
							(size 1.27 1.27)
						)
					)
				)
			)
			(pin open_collector inverted
				(at 45.72 -91.44 180)
				(length 3.81)
				(name "B.BA"
					(effects
						(font
							(size 1.27 1.27)
						)
					)
				)
				(number "T2"
					(effects
						(font
							(size 1.27 1.27)
						)
					)
				)
			)
			(pin output inverted
				(at -45.72 -81.28 0)
				(length 3.81)
				(name "A.HOSTREQ"
					(effects
						(font
							(size 1.27 1.27)
						)
					)
				)
				(number "T3"
					(effects
						(font
							(size 1.27 1.27)
						)
					)
				)
			)
			(pin input inverted
				(at 45.72 -116.84 180)
				(length 3.81)
				(name "DEBUGREQ"
					(effects
						(font
							(size 1.27 1.27)
						)
					)
				)
				(number "T4"
					(effects
						(font
							(size 1.27 1.27)
						)
					)
				)
			)
			(pin input inverted
				(at -45.72 -76.2 0)
				(length 3.81)
				(name "A.HOSTSEL"
					(effects
						(font
							(size 1.27 1.27)
						)
					)
				)
				(number "T5"
					(effects
						(font
							(size 1.27 1.27)
						)
					)
				)
			)
			(pin tri_state line
				(at 45.72 43.18 180)
				(length 3.81)
				(name "B.D31"
					(effects
						(font
							(size 1.27 1.27)
						)
					)
				)
				(number "T6"
					(effects
						(font
							(size 1.27 1.27)
						)
					)
				)
			)
			(pin power_in line
				(at 38.1 -129.54 90)
				(length 3.81)
				(name "GND"
					(effects
						(font
							(size 1.27 1.27)
						)
					)
				)
				(number "T7"
					(effects
						(font
							(size 1.27 1.27)
						)
					)
				)
			)
			(pin tri_state line
				(at 45.72 55.88 180)
				(length 3.81)
				(name "B.D26"
					(effects
						(font
							(size 1.27 1.27)
						)
					)
				)
				(number "T8"
					(effects
						(font
							(size 1.27 1.27)
						)
					)
				)
			)
			(pin tri_state line
				(at 45.72 66.04 180)
				(length 3.81)
				(name "B.D22"
					(effects
						(font
							(size 1.27 1.27)
						)
					)
				)
				(number "T9"
					(effects
						(font
							(size 1.27 1.27)
						)
					)
				)
			)
			(pin output inverted
				(at 45.72 -81.28 180)
				(length 3.81)
				(name "B.HOSTREQ"
					(effects
						(font
							(size 1.27 1.27)
						)
					)
				)
				(number "U1"
					(effects
						(font
							(size 1.27 1.27)
						)
					)
				)
			)
			(pin tri_state line
				(at 45.72 76.2 180)
				(length 3.81)
				(name "B.D18"
					(effects
						(font
							(size 1.27 1.27)
						)
					)
				)
				(number "U10"
					(effects
						(font
							(size 1.27 1.27)
						)
					)
				)
			)
			(pin tri_state line
				(at 45.72 83.82 180)
				(length 3.81)
				(name "B.D15"
					(effects
						(font
							(size 1.27 1.27)
						)
					)
				)
				(number "U11"
					(effects
						(font
							(size 1.27 1.27)
						)
					)
				)
			)
			(pin tri_state line
				(at 45.72 91.44 180)
				(length 3.81)
				(name "B.D12"
					(effects
						(font
							(size 1.27 1.27)
						)
					)
				)
				(number "U12"
					(effects
						(font
							(size 1.27 1.27)
						)
					)
				)
			)
			(pin tri_state line
				(at 45.72 99.06 180)
				(length 3.81)
				(name "B.D9"
					(effects
						(font
							(size 1.27 1.27)
						)
					)
				)
				(number "U13"
					(effects
						(font
							(size 1.27 1.27)
						)
					)
				)
			)
			(pin tri_state line
				(at 45.72 106.68 180)
				(length 3.81)
				(name "B.D6"
					(effects
						(font
							(size 1.27 1.27)
						)
					)
				)
				(number "U14"
					(effects
						(font
							(size 1.27 1.27)
						)
					)
				)
			)
			(pin tri_state line
				(at 45.72 114.3 180)
				(length 3.81)
				(name "B.D3"
					(effects
						(font
							(size 1.27 1.27)
						)
					)
				)
				(number "U15"
					(effects
						(font
							(size 1.27 1.27)
						)
					)
				)
			)
			(pin tri_state line
				(at 45.72 121.92 180)
				(length 3.81)
				(name "B.D0"
					(effects
						(font
							(size 1.27 1.27)
						)
					)
				)
				(number "U16"
					(effects
						(font
							(size 1.27 1.27)
						)
					)
				)
			)
			(pin tri_state line
				(at -45.72 114.3 0)
				(length 3.81)
				(name "A.D3"
					(effects
						(font
							(size 1.27 1.27)
						)
					)
				)
				(number "U17"
					(effects
						(font
							(size 1.27 1.27)
						)
					)
				)
			)
			(pin tri_state line
				(at -45.72 111.76 0)
				(length 3.81)
				(name "A.D4"
					(effects
						(font
							(size 1.27 1.27)
						)
					)
				)
				(number "U18"
					(effects
						(font
							(size 1.27 1.27)
						)
					)
				)
			)
			(pin bidirectional line
				(at 45.72 -114.3 180)
				(length 3.81)
				(name "DSCK/OS1"
					(effects
						(font
							(size 1.27 1.27)
						)
					)
				)
				(number "U2"
					(effects
						(font
							(size 1.27 1.27)
						)
					)
				)
			)
			(pin input inverted
				(at -45.72 -78.74 0)
				(length 3.81)
				(name "A.HOSTACK"
					(effects
						(font
							(size 1.27 1.27)
						)
					)
				)
				(number "U4"
					(effects
						(font
							(size 1.27 1.27)
						)
					)
				)
			)
			(pin input inverted
				(at 45.72 -71.12 180)
				(length 3.81)
				(name "B.DENB"
					(effects
						(font
							(size 1.27 1.27)
						)
					)
				)
				(number "U5"
					(effects
						(font
							(size 1.27 1.27)
						)
					)
				)
			)
			(pin tri_state line
				(at 45.72 48.26 180)
				(length 3.81)
				(name "B.D29"
					(effects
						(font
							(size 1.27 1.27)
						)
					)
				)
				(number "U6"
					(effects
						(font
							(size 1.27 1.27)
						)
					)
				)
			)
			(pin tri_state line
				(at 45.72 53.34 180)
				(length 3.81)
				(name "B.D27"
					(effects
						(font
							(size 1.27 1.27)
						)
					)
				)
				(number "U7"
					(effects
						(font
							(size 1.27 1.27)
						)
					)
				)
			)
			(pin tri_state line
				(at 45.72 60.96 180)
				(length 3.81)
				(name "B.D24"
					(effects
						(font
							(size 1.27 1.27)
						)
					)
				)
				(number "U8"
					(effects
						(font
							(size 1.27 1.27)
						)
					)
				)
			)
			(pin tri_state line
				(at 45.72 68.58 180)
				(length 3.81)
				(name "B.D21"
					(effects
						(font
							(size 1.27 1.27)
						)
					)
				)
				(number "U9"
					(effects
						(font
							(size 1.27 1.27)
						)
					)
				)
			)
			(pin output line
				(at 45.72 -109.22 180)
				(length 3.81)
				(name "DSO"
					(effects
						(font
							(size 1.27 1.27)
						)
					)
				)
				(number "V1"
					(effects
						(font
							(size 1.27 1.27)
						)
					)
				)
			)
			(pin tri_state line
				(at 45.72 73.66 180)
				(length 3.81)
				(name "B.D19"
					(effects
						(font
							(size 1.27 1.27)
						)
					)
				)
				(number "V10"
					(effects
						(font
							(size 1.27 1.27)
						)
					)
				)
			)
			(pin tri_state line
				(at 45.72 81.28 180)
				(length 3.81)
				(name "B.D16"
					(effects
						(font
							(size 1.27 1.27)
						)
					)
				)
				(number "V11"
					(effects
						(font
							(size 1.27 1.27)
						)
					)
				)
			)
			(pin tri_state line
				(at 45.72 88.9 180)
				(length 3.81)
				(name "B.D13"
					(effects
						(font
							(size 1.27 1.27)
						)
					)
				)
				(number "V12"
					(effects
						(font
							(size 1.27 1.27)
						)
					)
				)
			)
			(pin tri_state line
				(at 45.72 96.52 180)
				(length 3.81)
				(name "B.D10"
					(effects
						(font
							(size 1.27 1.27)
						)
					)
				)
				(number "V13"
					(effects
						(font
							(size 1.27 1.27)
						)
					)
				)
			)
			(pin tri_state line
				(at 45.72 101.6 180)
				(length 3.81)
				(name "B.D8"
					(effects
						(font
							(size 1.27 1.27)
						)
					)
				)
				(number "V14"
					(effects
						(font
							(size 1.27 1.27)
						)
					)
				)
			)
			(pin tri_state line
				(at 45.72 109.22 180)
				(length 3.81)
				(name "B.D5"
					(effects
						(font
							(size 1.27 1.27)
						)
					)
				)
				(number "V15"
					(effects
						(font
							(size 1.27 1.27)
						)
					)
				)
			)
			(pin tri_state line
				(at 45.72 116.84 180)
				(length 3.81)
				(name "B.D2"
					(effects
						(font
							(size 1.27 1.27)
						)
					)
				)
				(number "V16"
					(effects
						(font
							(size 1.27 1.27)
						)
					)
				)
			)
			(pin tri_state line
				(at -45.72 121.92 0)
				(length 3.81)
				(name "A.D0"
					(effects
						(font
							(size 1.27 1.27)
						)
					)
				)
				(number "V17"
					(effects
						(font
							(size 1.27 1.27)
						)
					)
				)
			)
			(pin tri_state line
				(at -45.72 119.38 0)
				(length 3.81)
				(name "A.D1"
					(effects
						(font
							(size 1.27 1.27)
						)
					)
				)
				(number "V18"
					(effects
						(font
							(size 1.27 1.27)
						)
					)
				)
			)
			(pin bidirectional line
				(at 45.72 -111.76 180)
				(length 3.81)
				(name "DSI/OS0"
					(effects
						(font
							(size 1.27 1.27)
						)
					)
				)
				(number "V2"
					(effects
						(font
							(size 1.27 1.27)
						)
					)
				)
			)
			(pin input inverted
				(at 45.72 -78.74 180)
				(length 3.81)
				(name "B.HOSTACK"
					(effects
						(font
							(size 1.27 1.27)
						)
					)
				)
				(number "V3"
					(effects
						(font
							(size 1.27 1.27)
						)
					)
				)
			)
			(pin input inverted
				(at 45.72 -76.2 180)
				(length 3.81)
				(name "B.HOSTSEL"
					(effects
						(font
							(size 1.27 1.27)
						)
					)
				)
				(number "V4"
					(effects
						(font
							(size 1.27 1.27)
						)
					)
				)
			)
			(pin tri_state line
				(at 45.72 45.72 180)
				(length 3.81)
				(name "B.D30"
					(effects
						(font
							(size 1.27 1.27)
						)
					)
				)
				(number "V5"
					(effects
						(font
							(size 1.27 1.27)
						)
					)
				)
			)
			(pin tri_state line
				(at 45.72 50.8 180)
				(length 3.81)
				(name "B.D28"
					(effects
						(font
							(size 1.27 1.27)
						)
					)
				)
				(number "V6"
					(effects
						(font
							(size 1.27 1.27)
						)
					)
				)
			)
			(pin tri_state line
				(at 45.72 58.42 180)
				(length 3.81)
				(name "B.D25"
					(effects
						(font
							(size 1.27 1.27)
						)
					)
				)
				(number "V7"
					(effects
						(font
							(size 1.27 1.27)
						)
					)
				)
			)
			(pin tri_state line
				(at 45.72 63.5 180)
				(length 3.81)
				(name "B.D23"
					(effects
						(font
							(size 1.27 1.27)
						)
					)
				)
				(number "V8"
					(effects
						(font
							(size 1.27 1.27)
						)
					)
				)
			)
			(pin tri_state line
				(at 45.72 71.12 180)
				(length 3.81)
				(name "B.D20"
					(effects
						(font
							(size 1.27 1.27)
						)
					)
				)
				(number "V9"
					(effects
						(font
							(size 1.27 1.27)
						)
					)
				)
			)
		)
	)
)